<svg width="60" height="60" viewBox="0 0 60 60" version="1.1" xmlns="http://www.w3.org/2000/svg" xmlns:xlink="http://www.w3.org/1999/xlink">
<title>Rectangle 5</title>
<desc>Created using Figma</desc>
<g id="Canvas" transform="translate(-5259 2000)">
<g id="Rectangle 5">
<use xlink:href="#path0_fill" transform="translate(5259 -2000)" fill="#4BE9FF"/>
</g>
</g>
<defs>
<path id="path0_fill" d="M 0 60L 60 30L 0 0L 0 60Z"/>
</defs>
</svg>
