<svg width="167" height="120" viewBox="0 0 167 120" version="1.1" xmlns="http://www.w3.org/2000/svg" xmlns:xlink="http://www.w3.org/1999/xlink">
<title>Group</title>
<desc>Created using Figma</desc>
<g id="Canvas" transform="translate(1850 2526)">
<g id="Group">
<g id="Vector">
<use xlink:href="#path0_fill" transform="translate(-1850 -2447.27)" fill="#565A60"/>
</g>
<g id="Vector">
<use xlink:href="#path1_fill" transform="translate(-1792 -2526)" fill="#30D5C8"/>
</g>
</g>
</g>
<defs>
<path id="path0_fill" d="M 4.16185 10.0578C 3.26012 10.0578 2.56647 9.36416 2.56647 8.46243C 2.56647 7.56069 3.26012 6.86705 4.16185 6.86705C 5.06358 6.86705 5.75723 7.56069 5.75723 8.46243C 5.75723 9.36416 4.99422 10.0578 4.16185 10.0578ZM 6.93642 28.3699L 5.54913 28.3699L 5.54913 14.289C 5.54913 13.9422 5.4104 13.6647 5.20231 13.4566L 4.99422 13.2486C 4.71676 12.9711 4.30058 12.8324 3.88439 12.9017L 0.971098 13.526C 0.416185 13.6647 0 14.1503 0 14.7052L 0 14.9827C 0 15.3295 0.138728 15.6763 0.416185 15.9538C 0.693642 16.1618 1.04046 16.2312 1.38728 16.2312L 2.77457 15.9538L 2.77457 28.4393L 1.52601 28.4393C 0.83237 28.4393 0.346821 28.9942 0.346821 29.6185L 0.346821 29.896C 0.346821 30.5896 0.901734 31.0751 1.52601 31.0751L 6.93642 31.0751C 7.63006 31.0751 8.11561 30.5202 8.11561 29.896L 8.11561 29.6185C 8.11561 28.9249 7.56069 28.3699 6.93642 28.3699ZM 26.2197 27.9538C 26.5665 27.8844 26.9133 27.9538 27.1908 28.2312C 27.4682 28.4393 27.6069 28.7861 27.6069 29.1329L 27.6069 29.4104C 27.6069 29.9653 27.1908 30.5202 26.6358 30.5896L 23.3064 31.1445C 23.237 31.1445 23.1676 31.1445 23.0983 31.1445C 22.7514 31.1445 22.474 31.0058 22.2659 30.7977L 22.0578 30.5896C 21.8497 30.3815 21.7803 30.1734 21.711 29.896C 20.5318 30.5896 19.0751 31.1445 17.4104 31.1445C 11.7919 31.1445 8.46243 27.815 8.46243 22.1965C 8.46243 17.1329 12.763 12.8324 17.896 12.8324C 19.3526 12.8324 20.6012 12.9711 21.6416 13.2486L 21.6416 4.6474L 20.2543 4.92485C 19.9075 4.99422 19.4913 4.92486 19.2139 4.71676C 18.9364 4.50867 18.7283 4.16185 18.7283 3.74567L 18.7283 3.46821C 18.7283 2.91329 19.1445 2.42775 19.6994 2.28902L 22.6127 1.66474C 23.0289 1.59538 23.4451 1.66474 23.7225 2.01156L 23.9306 2.21965C 24.1387 2.42774 24.2775 2.77457 24.2775 3.05202L 24.2775 28.2312L 26.2197 27.9538ZM 17.8266 15.5376C 14.5665 15.5376 11.0983 18.2428 11.0983 22.1965C 11.0983 25.0405 12.2081 28.4393 17.2717 28.4393C 18.9364 28.4393 20.4624 27.5376 21.5723 26.5665L 21.5723 16.0231C 20.6705 15.7457 19.5607 15.5376 17.8266 15.5376ZM 43.0751 25.8035C 43.5607 26.2197 43.6301 26.9827 43.2139 27.4682C 41.2717 29.896 38.7746 31.1445 36.1387 31.1445C 30.8671 31.1445 27.4682 27.6069 27.4682 22.1965C 27.4682 16.8555 31.2832 12.8324 36.3468 12.8324C 40.5087 12.8324 43.0058 15.1214 43.1445 19.0751C 43.1445 19.422 43.0058 19.6994 42.7977 19.9769C 42.5896 20.185 42.2428 20.3237 41.896 20.3237L 30.4509 20.3237C 30.3121 20.948 30.2428 21.5723 30.2428 22.1965C 30.2428 26.1503 32.4624 28.4393 36.1387 28.4393C 38.5665 28.4393 40.3006 26.7746 41.0636 25.7341C 41.2717 25.4567 41.5491 25.3179 41.896 25.2486C 42.2428 25.1792 42.5202 25.3179 42.7977 25.526L 43.0751 25.8035ZM 36.3468 15.5376C 34.5434 15.5376 32.948 16.3006 31.7688 17.6185L 40.1618 17.6185C 39.6763 16.2312 38.4277 15.5376 36.3468 15.5376ZM 58.9595 28.2312C 59.3064 28.0925 59.7919 28.0925 60.0694 28.3699C 60.4162 28.578 60.6243 28.9942 60.6243 29.341L 60.6243 29.6185C 60.6243 30.104 60.3468 30.5202 59.9306 30.7283C 59.3757 30.9364 58.5434 31.2139 57.6416 31.2139C 57.0173 31.2139 55.6994 31.0058 55.1445 29.6185C 53.8266 30.4509 52.0925 31.2139 50.0116 31.2139C 46.6127 31.2139 45.0867 28.8555 45.0867 26.6358C 45.0867 24.1387 46.5434 23.0983 47.3757 22.6821C 47.7919 22.474 49.3873 21.9884 54.104 20.6705L 54.7977 20.4624L 54.7977 17.896C 54.7977 15.8844 54.104 15.5376 52.5087 15.5376C 52.0925 15.5376 51.3295 15.815 50.7746 15.9538C 48.9017 16.6474 48.1387 17.341 48.0694 17.6185C 48.0694 17.6879 48.0694 17.8266 48.1387 17.9653C 48.2775 18.5896 47.8613 19.2139 47.237 19.3526L 46.9595 19.422C 46.6127 19.4913 46.2659 19.422 45.9884 19.2832C 45.711 19.0751 45.5029 18.7977 45.4335 18.5202C 45.3642 18.2428 45.3642 17.8959 45.3642 17.6185C 45.3642 15.9538 46.8902 14.5665 49.8728 13.4566C 50.9827 13.0405 51.815 12.8324 52.5087 12.8324C 55.6994 12.8324 57.5029 14.5665 57.5029 17.7572L 57.5029 27.6763C 57.5029 28.3006 57.6416 28.5087 57.6416 28.5087C 58.1965 28.5087 58.6821 28.3006 58.9595 28.2312ZM 48.4162 25.1098C 48.2081 25.2486 47.7225 25.4566 47.7225 26.6358C 47.7225 27.052 47.8613 28.5087 49.9422 28.5087C 51.815 28.5087 53.4798 27.5376 54.7977 26.5665L 54.7977 23.237C 52.5087 23.8613 48.9017 24.9017 48.4162 25.1098ZM 95.9306 12.9017C 97.6647 12.9017 98.7052 13.8035 98.8439 15.3988C 98.9133 16.0231 98.4971 16.5087 97.9422 16.6474L 97.6647 16.7168C 97.3179 16.7861 96.9711 16.7168 96.6936 16.5087C 96.4162 16.3006 96.2081 15.9538 96.2081 15.6069C 96.2775 15.4682 96.2081 15.4682 96 15.4682C 94.7514 15.4682 93.2254 16.578 91.5607 17.6879L 91.422 17.8266L 91.422 28.2312L 93.0867 28.2312C 93.7803 28.2312 94.2659 28.7861 94.2659 29.4104L 94.2659 29.6879C 94.2659 30.3815 93.711 30.8671 93.0867 30.8671L 87.5376 30.8671C 87.8844 31.5607 88.0925 32.3237 88.0925 33.2948C 88.0925 38.1503 83.7225 41.2717 76.9249 41.2717C 71.3757 41.2717 69.3642 38.289 69.3642 35.7225C 69.3642 33.8497 70.9595 32.2543 72.6936 30.9364C 71.6532 30.3121 71.1676 29.2023 71.1676 28.1619C 71.1676 27.052 71.6532 26.0116 72.6936 25.0405C 71.0983 23.7919 70.1272 21.8497 70.1272 19.6301C 70.1272 15.052 73.8035 12.6243 77.4104 12.6243C 78.4509 12.6243 79.4913 12.8324 80.5318 13.1792C 81.7803 13.526 82.7514 13.6647 83.6532 13.6647C 84.6936 13.6647 85.8035 13.5954 86.4277 13.526C 86.5665 13.4566 86.6358 13.3873 86.7746 13.3873L 89.6879 12.763C 90.104 12.6936 90.5202 12.763 90.7977 13.1098L 91.0058 13.3179C 91.2139 13.526 91.3526 13.8728 91.3526 14.1503L 91.3526 14.4971C 92.7399 13.6647 94.3353 12.9017 95.9306 12.9017ZM 76.8555 38.7746C 80.7399 38.7746 85.3179 37.3873 85.3179 33.4335C 85.3179 32.0462 84.9017 31.422 82.5434 31.422C 81.5723 31.422 80.8092 31.4913 79.8382 31.5607L 76.6474 31.7688C 75.2601 32.6705 72.0694 34.6821 72.0694 36C 72 37.2486 73.2486 38.7746 76.8555 38.7746ZM 77.341 15.5376C 75.1214 15.5376 72.8324 16.8555 72.8324 19.8382C 72.8324 21.9191 74.0809 24.0694 77.5491 24.0694C 79.7688 24.0694 82.0578 22.7514 82.0578 19.7688C 81.9884 17.7572 80.8092 15.5376 77.341 15.5376ZM 82.474 28.7168C 84 28.7168 85.7341 28.6474 86.3584 28.6474L 88.578 28.578L 88.578 15.8844L 87.1908 16.1619C 87.052 16.2312 86.9133 16.3006 86.7746 16.3006C 86.0116 16.4393 85.0405 16.5087 84 16.5087C 84.4855 17.4798 84.763 18.5896 84.763 19.7688C 84.763 24.3468 81.0867 26.7746 77.4798 26.7746C 76.7168 26.7746 75.9538 26.7052 75.2601 26.5665C 74.3584 27.2601 73.8035 27.8844 73.8035 28.4393C 73.8035 28.6474 73.8035 29.0636 75.1214 29.0636C 76.0231 29.0636 77.341 28.9942 78.4509 28.9249L 79.5607 28.8555C 80.6012 28.7861 81.5029 28.7168 82.474 28.7168ZM 131.931 28.3699C 132.624 28.3699 133.11 28.9249 133.11 29.5491L 133.11 29.8266C 133.11 30.5202 132.555 31.0058 131.931 31.0058L 126.59 31.0058C 125.896 31.0058 125.41 30.4509 125.41 29.8266L 125.41 29.5491C 125.41 28.8555 125.965 28.3699 126.59 28.3699L 127.838 28.3699L 127.838 18.659C 127.838 16.3006 127.075 15.6069 124.578 15.6069C 123.329 15.6069 121.457 16.2312 118.96 17.6185L 118.96 28.3699L 120.139 28.3699C 120.832 28.3699 121.318 28.9249 121.318 29.5491L 121.318 29.8266C 121.318 30.5202 120.763 31.0058 120.139 31.0058L 114.867 31.0058C 114.382 31.0058 112.023 31.1445 111.121 31.1445C 110.497 31.1445 109.179 30.9364 108.624 29.5491C 107.306 30.3815 105.503 31.1445 103.491 31.1445C 100.092 31.1445 98.5665 28.7861 98.5665 26.5665C 98.5665 24.0694 100.023 23.0289 100.855 22.6127C 101.272 22.4046 102.867 21.9191 107.584 20.6012L 108.347 20.3931L 108.347 17.8266C 108.347 15.815 107.653 15.4682 106.058 15.4682C 105.642 15.4682 104.879 15.7457 104.324 15.8844C 102.451 16.578 101.688 17.2717 101.618 17.5491C 101.618 17.6185 101.618 17.7572 101.688 17.896C 101.827 18.5202 101.41 19.1445 100.786 19.2832L 100.509 19.3526C 100.162 19.422 99.815 19.3526 99.5376 19.2139C 99.2601 19.0058 99.052 18.7283 98.9827 18.4509C 98.9133 18.1734 98.9133 17.8266 98.9133 17.5491C 98.9133 15.8844 100.439 14.4971 103.422 13.3873C 104.532 12.9711 105.364 12.763 106.058 12.763C 109.249 12.763 111.052 14.4971 111.052 17.6879L 111.052 27.6069C 111.052 28.2312 111.954 28.3006 111.815 28.3006C 112.37 28.2312 114.52 28.2312 114.867 28.2312L 116.185 28.2312L 116.185 15.7457L 114.936 16.0231C 114.59 16.0925 114.173 16.0231 113.896 15.815C 113.618 15.6069 113.48 15.2601 113.48 14.8439L 113.48 14.5665C 113.48 14.0116 113.896 13.526 114.451 13.3873L 117.225 12.763C 117.642 12.6936 118.058 12.763 118.335 13.1098L 118.543 13.3179C 118.751 13.526 118.89 13.8728 118.89 14.1503L 118.89 14.4277C 121.179 13.2486 122.983 12.763 124.509 12.763C 128.462 12.763 130.474 14.7052 130.474 18.4509L 130.474 28.2312L 131.931 28.2312L 131.931 28.3699ZM 102.035 25.1098C 101.827 25.2486 101.341 25.4566 101.341 26.6358C 101.341 27.052 101.48 28.5087 103.561 28.5087C 105.434 28.5087 107.098 27.5376 108.416 26.5665L 108.416 23.237C 106.127 23.8613 102.52 24.9017 102.035 25.1098ZM 150.173 27.9538C 150.52 27.8844 150.867 27.9538 151.145 28.2312C 151.422 28.4393 151.561 28.7861 151.561 29.1329L 151.561 29.4104C 151.561 29.9653 151.145 30.5202 150.59 30.5896L 147.26 31.1445C 147.191 31.1445 147.121 31.1445 147.052 31.1445C 146.705 31.1445 146.428 31.0058 146.22 30.7977L 146.012 30.5896C 145.803 30.3815 145.734 30.1734 145.665 29.896C 144.486 30.5896 143.029 31.1445 141.364 31.1445C 135.746 31.1445 132.416 27.815 132.416 22.1965C 132.416 17.1329 136.717 12.8324 141.85 12.8324C 143.306 12.8324 144.555 12.9711 145.595 13.2486L 145.595 4.6474L 144.208 4.92485C 143.861 4.99422 143.445 4.92486 143.168 4.71676C 142.89 4.50867 142.751 4.16185 142.751 3.74567L 142.751 3.46821C 142.751 2.91329 143.168 2.42775 143.723 2.28902L 146.636 1.66474C 147.052 1.59538 147.468 1.66474 147.746 2.01156L 147.954 2.21965C 148.162 2.42774 148.301 2.77457 148.301 3.05202L 148.301 28.2312L 150.173 27.9538ZM 141.78 15.5376C 138.52 15.5376 135.052 18.2428 135.052 22.1965C 135.052 25.0405 136.162 28.4393 141.225 28.4393C 142.89 28.4393 144.416 27.5376 145.526 26.5665L 145.526 16.0231C 144.624 15.7457 143.514 15.5376 141.78 15.5376ZM 166.058 25.8035C 166.543 26.2197 166.613 26.9827 166.197 27.4682C 164.254 29.896 161.757 31.1445 159.121 31.1445C 153.85 31.1445 150.451 27.6069 150.451 22.1965C 150.451 16.8555 154.266 12.8324 159.329 12.8324C 163.491 12.8324 165.988 15.1214 166.127 19.0751C 166.127 19.422 165.988 19.6994 165.78 19.9769C 165.572 20.185 165.225 20.3237 164.879 20.3237L 153.364 20.3237C 153.225 20.948 153.156 21.5723 153.156 22.1965C 153.156 26.1503 155.376 28.4393 159.052 28.4393C 161.48 28.4393 163.214 26.7746 163.977 25.7341C 164.185 25.4567 164.462 25.3179 164.809 25.2486C 165.156 25.1792 165.434 25.3179 165.711 25.526L 166.058 25.8035ZM 159.329 15.5376C 157.526 15.5376 155.931 16.3006 154.751 17.6185L 163.145 17.6185C 162.659 16.2312 161.41 15.5376 159.329 15.5376ZM 32.948 5.54913L 31.7688 5.20231C 31.6301 5.68786 31.2139 6.03468 30.659 6.03468C 29.9653 6.03468 29.5491 5.6185 29.5491 4.92485L 29.5491 3.95375C 29.5491 3.26011 29.9653 2.84393 30.659 2.84393C 31.2139 2.84393 31.5607 3.19075 31.7688 3.6763L 32.948 3.32948C 32.6705 2.28902 31.7688 1.80347 30.5896 1.80347C 29.1329 1.80347 28.0925 2.7052 28.0925 4.09249L 28.0925 4.85549C 28.0925 6.17341 29.1329 7.07514 30.659 7.07514C 31.6994 7.07514 32.5318 6.52023 32.948 5.54913ZM 38.6358 4.85549L 38.6358 4.02312C 38.6358 2.63584 37.5954 1.80347 36.1387 1.80347C 34.6821 1.80347 33.6416 2.63584 33.6416 4.02312L 33.6416 4.85549C 33.6416 6.24277 34.6821 7.07514 36.1387 7.07514C 37.5954 7.07514 38.6358 6.24277 38.6358 4.85549ZM 37.1098 4.99422C 37.1098 5.61849 36.763 6.03468 36.1387 6.03468C 35.5145 6.03468 35.1676 5.61849 35.1676 4.99422L 35.1676 3.95375C 35.1676 3.32948 35.5145 2.91329 36.1387 2.91329C 36.763 2.91329 37.1098 3.32948 37.1098 3.95375L 37.1098 4.99422ZM 47.3757 7.00578L 47.3757 3.46821C 47.3757 2.49711 46.8902 1.80347 45.9191 1.80347C 45.1561 1.80347 44.6705 2.15029 44.2543 2.98266C 44.1156 2.28902 43.6301 1.80347 42.9364 1.80347C 42.1734 1.80347 41.6185 2.21965 41.2023 3.05202L 41.1329 1.9422L 39.7457 1.9422L 39.7457 7.00578L 41.341 7.00578L 41.341 4.09249C 41.341 3.60694 41.6185 2.91329 42.1734 2.91329C 42.5896 2.91329 42.7977 3.19075 42.7977 3.6763L 42.7977 7.07514L 44.3931 7.07514L 44.3931 4.16185C 44.3931 3.6763 44.6705 2.98266 45.2254 2.98266C 45.6416 2.98266 45.8497 3.26012 45.8497 3.74567L 45.8497 7.07514L 47.3757 7.07514L 47.3757 7.00578ZM 56.2543 7.00578L 56.2543 3.46821C 56.2543 2.49711 55.7688 1.80347 54.7977 1.80347C 54.0347 1.80347 53.5491 2.15029 53.1329 2.98266C 52.9942 2.28902 52.5087 1.80347 51.815 1.80347C 51.052 1.80347 50.4971 2.21965 50.0809 3.05202L 50.0116 1.9422L 48.6243 1.9422L 48.6243 7.00578L 50.2197 7.00578L 50.2197 4.09249C 50.2197 3.60694 50.4971 2.91329 51.052 2.91329C 51.4682 2.91329 51.6763 3.19075 51.6763 3.6763L 51.6763 7.07514L 53.2717 7.07514L 53.2717 4.16185C 53.2717 3.6763 53.5491 2.98266 54.104 2.98266C 54.5202 2.98266 54.7283 3.26012 54.7283 3.74567L 54.7283 7.07514L 56.2543 7.07514L 56.2543 7.00578ZM 62.4277 7.00578L 62.4277 1.9422L 60.8324 1.9422L 60.8324 4.92485C 60.8324 5.47977 60.4162 6.03468 59.7919 6.03468C 59.3064 6.03468 59.0289 5.75722 59.0289 5.27168L 59.0289 1.9422L 57.4335 1.9422L 57.4335 5.47977C 57.4335 6.45087 57.9884 7.14451 59.0983 7.14451C 59.9306 7.14451 60.4855 6.79769 60.9711 5.96532L 61.0405 7.07514L 62.4277 7.07514L 62.4277 7.00578ZM 68.5318 7.00578L 68.5318 3.46821C 68.5318 2.49711 67.9769 1.80347 66.9364 1.80347C 66.104 1.80347 65.4798 2.21965 65.0636 3.05202L 64.9942 1.87283L 63.6069 1.87283L 63.6069 6.93642L 65.2023 6.93642L 65.2023 4.02312C 65.2023 3.46821 65.6879 2.84393 66.2428 2.84393C 66.7283 2.84393 66.9364 3.12139 66.9364 3.60693L 66.9364 6.93642L 68.5318 6.93642L 68.5318 7.00578ZM 71.3757 7.00578L 71.3757 1.9422L 69.7803 1.9422L 69.7803 7.00578L 71.3757 7.00578ZM 71.3757 1.17919L 71.3757 0L 69.8497 0L 69.8497 1.17919L 71.3757 1.17919ZM 77.341 5.54913L 76.1618 5.20231C 76.0231 5.68786 75.6069 6.03468 75.052 6.03468C 74.3584 6.03468 73.9422 5.6185 73.9422 4.92485L 73.9422 3.95375C 73.9422 3.26011 74.3584 2.84393 75.052 2.84393C 75.6069 2.84393 75.9538 3.19075 76.1618 3.6763L 77.341 3.32948C 77.0636 2.28902 76.1618 1.80347 74.9827 1.80347C 73.526 1.80347 72.4855 2.7052 72.4855 4.09249L 72.4855 4.85549C 72.4855 6.17341 73.526 7.07514 75.052 7.07514C 76.1618 7.07514 76.9942 6.52023 77.341 5.54913ZM 83.1676 7.07514L 83.1676 6.10405C 82.8208 6.10405 82.7514 6.03468 82.7514 5.75723L 82.7514 3.81503C 82.7514 2.7052 81.9884 1.80347 80.4624 1.80347C 79.3526 1.80347 78.659 2.35838 78.2428 3.12139L 79.2832 3.53757C 79.5607 3.12139 79.8382 2.84393 80.3237 2.84393C 80.8786 2.84393 81.1561 3.12139 81.1561 3.60693L 81.1561 4.02312C 79.2832 3.8844 77.896 4.36994 77.896 5.47977L 77.896 5.54913C 77.896 6.45087 78.5896 7.00578 79.6301 7.00578C 80.3931 7.00578 81.0173 6.72833 81.4335 6.10405C 81.5723 6.72833 81.9884 7.00578 82.7514 7.00578L 83.1676 7.00578L 83.1676 7.07514ZM 81.1561 5.27168C 81.1561 5.75722 80.6705 6.03468 80.1156 6.03468C 79.6994 6.03468 79.422 5.75723 79.422 5.47977L 79.422 5.34104C 79.422 4.85549 80.0462 4.57804 81.1561 4.71676L 81.1561 5.27168ZM 87.1214 3.05202L 87.1214 1.9422L 86.0809 1.9422L 86.0809 0.624278L 84.5549 0.971099L 84.5549 1.9422L 83.6532 1.9422L 83.6532 3.05202L 84.5549 3.05202L 84.5549 5.47977C 84.5549 6.17341 84.6243 6.65896 84.9017 7.00578L 86.6358 7.00578C 86.289 6.58959 86.1503 6.10405 86.1503 5.47977L 86.1503 3.05202L 87.1214 3.05202ZM 89.5491 7.00578L 89.5491 1.9422L 87.9538 1.9422L 87.9538 7.00578L 89.5491 7.00578ZM 89.5491 1.17919L 89.5491 0L 88.0231 0L 88.0231 1.17919L 89.5491 1.17919ZM 95.7225 4.85549L 95.7225 4.02312C 95.7225 2.63584 94.6821 1.80347 93.2254 1.80347C 91.7688 1.80347 90.7283 2.63584 90.7283 4.02312L 90.7283 4.85549C 90.7283 6.24277 91.7688 7.07514 93.2254 7.07514C 94.6127 7.07514 95.7225 6.24277 95.7225 4.85549ZM 94.1272 4.99422C 94.1272 5.61849 93.7803 6.03468 93.1561 6.03468C 92.5318 6.03468 92.185 5.61849 92.185 4.99422L 92.185 3.95375C 92.185 3.32948 92.5318 2.91329 93.1561 2.91329C 93.7803 2.91329 94.1272 3.32948 94.1272 3.95375L 94.1272 4.99422ZM 101.688 7.00578L 101.688 3.46821C 101.688 2.49711 101.133 1.80347 100.092 1.80347C 99.2601 1.80347 98.6358 2.21965 98.2197 3.05202L 98.1503 1.87283L 96.763 1.87283L 96.763 6.93642L 98.3584 6.93642L 98.3584 4.02312C 98.3584 3.46821 98.8439 2.84393 99.3988 2.84393C 99.8844 2.84393 100.092 3.12139 100.092 3.60693L 100.092 6.93642L 101.688 6.93642L 101.688 7.00578ZM 110.428 7.07514L 110.428 6.10405C 110.081 6.10405 110.012 6.03468 110.012 5.75723L 110.012 3.81503C 110.012 2.7052 109.249 1.80347 107.723 1.80347C 106.613 1.80347 105.919 2.35838 105.503 3.12139L 106.543 3.53757C 106.821 3.12139 107.098 2.84393 107.584 2.84393C 108.139 2.84393 108.416 3.12139 108.416 3.60693L 108.416 4.02312C 106.543 3.8844 105.156 4.36994 105.156 5.47977L 105.156 5.54913C 105.156 6.45087 105.85 7.00578 106.89 7.00578C 107.653 7.00578 108.277 6.72833 108.694 6.10405C 108.832 6.72833 109.249 7.00578 110.012 7.00578L 110.428 7.00578L 110.428 7.07514ZM 108.416 5.27168C 108.416 5.75722 107.931 6.03468 107.376 6.03468C 106.96 6.03468 106.682 5.75723 106.682 5.47977L 106.682 5.34104C 106.682 4.85549 107.306 4.57804 108.416 4.71676L 108.416 5.27168ZM 116.324 1.80347C 116.324 1.66474 116.324 1.52601 116.254 1.24856L 115.145 1.24856C 115.145 1.73411 115.006 2.01156 114.52 1.9422C 114.312 1.9422 113.965 1.80347 113.48 1.80347C 112.231 1.80347 111.26 2.49711 111.26 3.39884L 111.26 3.46821C 111.26 4.02312 111.607 4.50867 112.162 4.71676C 111.468 4.78613 111.052 5.20231 111.052 5.68786C 111.052 6.03468 111.329 6.3815 111.954 6.52023C 111.191 6.72832 110.913 7.14451 110.913 7.56069L 110.913 7.63006C 110.913 8.39306 111.884 8.87861 113.48 8.87861C 115.283 8.87861 116.185 8.11561 116.185 7.21387L 116.185 7.14451C 116.185 6.31214 115.491 5.68786 113.757 5.68786C 112.578 5.68786 112.301 5.54913 112.301 5.27168C 112.301 5.06358 112.439 4.92485 112.855 4.92485C 112.994 4.92485 113.341 4.99422 113.48 4.99422C 114.936 4.99422 115.699 4.36994 115.699 3.46821L 115.699 3.39884C 115.699 3.05202 115.561 2.7052 115.145 2.42775C 115.283 2.49711 115.422 2.49711 115.561 2.49711C 116.046 2.56647 116.324 2.28902 116.324 1.80347ZM 114.798 7.21387C 114.798 7.49133 114.312 7.76878 113.48 7.76878C 112.647 7.76878 112.231 7.56069 112.231 7.21387C 112.231 6.93642 112.647 6.65896 113.618 6.65896C 114.451 6.65896 114.798 6.86705 114.798 7.21387ZM 114.312 3.46821C 114.312 3.81503 114.035 4.09249 113.48 4.09249C 112.925 4.09249 112.647 3.81503 112.647 3.46821L 112.647 3.39884C 112.647 3.05202 112.925 2.77457 113.48 2.77457C 114.035 2.77457 114.312 3.05202 114.312 3.39884L 114.312 3.46821ZM 121.595 4.57803L 121.595 3.95375C 121.595 2.7052 120.694 1.7341 119.168 1.7341C 117.642 1.7341 116.671 2.7052 116.671 3.95375L 116.671 4.85549C 116.671 6.10405 117.711 7.00578 119.168 7.00578C 120.347 7.00578 121.179 6.52023 121.526 5.47977L 120.416 5.13295C 120.208 5.6185 119.861 5.96532 119.306 5.96532C 118.613 5.96532 118.197 5.54913 118.197 5.06359L 118.197 4.50867L 121.595 4.50867L 121.595 4.57803ZM 120.139 4.02312L 118.266 4.02312L 118.266 3.6763C 118.266 3.19075 118.613 2.84393 119.237 2.84393C 119.792 2.84393 120.139 3.26012 120.139 3.6763L 120.139 4.02312ZM 127.561 7.00578L 127.561 3.46821C 127.561 2.49711 127.006 1.80347 125.965 1.80347C 125.133 1.80347 124.509 2.21965 124.092 3.05202L 124.023 1.87283L 122.636 1.87283L 122.636 6.93642L 124.231 6.93642L 124.231 4.02312C 124.231 3.46821 124.717 2.84393 125.272 2.84393C 125.757 2.84393 125.965 3.12139 125.965 3.60693L 125.965 6.93642L 127.561 6.93642L 127.561 7.00578ZM 133.526 5.54913L 132.347 5.20231C 132.208 5.68786 131.792 6.03468 131.237 6.03468C 130.543 6.03468 130.127 5.6185 130.127 4.92485L 130.127 3.95375C 130.127 3.26011 130.543 2.84393 131.237 2.84393C 131.792 2.84393 132.139 3.19075 132.347 3.6763L 133.526 3.32948C 133.249 2.28902 132.347 1.80347 131.168 1.80347C 129.711 1.80347 128.671 2.7052 128.671 4.09249L 128.671 4.85549C 128.671 6.17341 129.711 7.07514 131.237 7.07514C 132.277 7.07514 133.11 6.52023 133.526 5.54913ZM 139.145 1.87283L 137.618 1.87283L 136.855 4.36994L 136.578 5.34104L 136.231 4.36994L 135.468 1.87283L 133.873 1.87283L 135.746 6.79769L 135.676 7.07514C 135.538 7.56069 135.329 7.69942 134.705 7.69942L 134.358 7.69942L 134.358 8.73988L 134.844 8.73988C 136.301 8.73988 136.717 8.11561 137.341 6.5896L 139.145 1.87283Z"/>
<path id="path1_fill" fill-rule="evenodd" d="M 50.6358 23.5838C 50.6358 10.6127 39.2601 0 25.3179 0C 11.3757 0 -2.11683e-06 10.5434 -2.11683e-06 23.5838C -2.11683e-06 27.7457 1.17919 31.9075 3.46821 35.5145L 3.6763 35.8613L 3.74566 35.8613L 16.5087 57.5029C 16.5087 58.0578 16.578 58.5434 16.578 59.0289C 16.7168 63.815 16.9249 68.6012 23.0983 69.3642C 23.7919 69.4335 24.5549 69.5029 25.2486 69.5029C 26.0116 69.5029 26.7746 69.4335 27.4682 69.3642C 33.711 68.6705 33.8497 63.815 34.0578 59.0289C 34.0578 58.5434 34.0578 58.0578 34.1272 57.5029L 46.9595 35.8613L 47.0289 35.8613L 47.237 35.5145C 47.3064 35.4451 47.3064 35.3757 47.3757 35.3064L 47.3064 35.3064C 49.4566 31.6994 50.6358 27.6763 50.6358 23.5838ZM 48.9711 25.6647L 38.7746 21.6416C 38.7746 21.0867 38.7052 20.5318 38.6358 20.0462L 49.0405 24.1387C 49.0405 24.6243 49.0405 25.1792 48.9711 25.6647ZM 49.0405 22.474L 38.4277 18.3121C 38.3584 17.7572 38.289 17.2023 38.1503 16.6474L 48.8324 20.8092C 48.9711 21.3642 49.0405 21.9191 49.0405 22.474ZM 48.5549 19.0751L 37.8035 14.8439C 37.6647 14.2197 37.526 13.6647 37.3179 13.1098L 48 17.2717C 48.2775 17.8266 48.4162 18.4509 48.5549 19.0751ZM 47.3757 15.3295L 36.8324 11.1676C 35.4451 7.28324 33.4335 4.09249 31.0058 2.15029C 38.4277 3.88439 44.5318 8.80925 47.3757 15.3295ZM 26.0809 1.59538C 29.9653 2.08092 33.3642 5.96532 35.3757 11.7225L 26.0809 16.9942L 26.0809 1.59538ZM 26.0809 18.7977L 35.8613 13.2486C 36.6243 15.815 37.1098 18.7283 37.2486 21.7803L 26.0809 28.4393L 26.0809 18.7977ZM 26.0809 30.2428L 37.2486 23.5838C 37.2486 23.5838 37.2486 23.5838 37.2486 23.6532C 37.2486 27.3988 36.6936 31.1445 35.7225 34.4046L 26.0809 34.4046L 26.0809 30.2428ZM 24.5549 1.59538L 24.5549 16.9942L 15.2601 11.7225C 17.2023 5.96532 20.6012 2.08092 24.5549 1.59538ZM 13.3873 21.7803C 13.3873 21.1561 13.4566 20.5318 13.526 19.9769L 24.5549 26.4277L 24.5549 28.4393L 13.3873 21.7803ZM 24.5549 30.2428L 24.5549 34.3353L 14.9133 34.3353C 13.8728 31.0751 13.3873 27.3295 13.3873 23.5838C 13.3873 23.5838 13.3873 23.5838 13.3873 23.5145L 24.5549 30.2428ZM 13.7341 18.2428C 13.8035 17.6185 13.8728 17.0636 14.0116 16.5087L 24.5549 22.6127L 24.5549 24.6243L 13.7341 18.2428ZM 14.289 14.9133C 14.4277 14.3584 14.5665 13.8035 14.7052 13.2486L 24.4855 18.7977L 24.4855 20.8092L 14.289 14.9133ZM 19.6301 2.15029C 17.2023 4.09249 15.1908 7.28324 13.8035 11.1676L 3.26012 15.2601C 6.10405 8.80925 12.2081 3.88439 19.6301 2.15029ZM 1.52601 23.5838C 1.52601 21.3642 1.87283 19.2832 2.49711 17.2717L 13.1792 13.1098C 12.4162 15.7457 11.9306 18.659 11.7919 21.711L 1.66474 25.6647C 1.59537 24.9711 1.52601 24.2775 1.52601 23.5838ZM 1.87283 27.2601L 11.7919 23.3757C 11.7919 23.4451 11.7919 23.5145 11.7919 23.5838C 11.7919 27.3295 12.2775 31.0058 13.2486 34.3353L 4.57804 34.3353C 3.26012 32.1156 2.28902 29.7572 1.87283 27.2601ZM 5.54913 35.8613L 8.67052 35.8613L 9.22543 37.3873L 6.45087 37.3873L 5.54913 35.8613ZM 7.3526 38.9133L 9.84971 38.9133L 10.4046 40.4393L 8.25433 40.4393L 7.3526 38.9133ZM 9.15607 41.9653L 10.9595 41.9653L 13.8728 50.0116L 9.15607 41.9653ZM 17.896 56.5318L 17.341 55.0058C 17.341 55.0058 17.341 55.0058 17.4104 55.0058C 19.4913 53.341 21.0867 51.9538 22.8902 49.9422C 23.1676 50.9827 23.4451 51.3295 23.3757 52.0925C 23.3064 53.341 21.6416 53.5491 20.6012 55.8382C 19.3526 56.0462 18.3815 56.3237 17.896 56.5318ZM 21.2254 67.1445C 19.6301 66.3121 18.8671 64.8555 18.5202 63.1214L 21.2254 63.1214L 21.2254 67.1445ZM 24.4855 67.8382C 23.9306 67.8382 23.3757 67.7688 22.9595 67.6994L 22.9595 63.1214L 24.4855 63.1214L 24.4855 67.8382ZM 27.6763 67.6994C 27.1908 67.7688 26.7052 67.8382 26.0809 67.8382L 26.0809 63.1214L 27.6763 63.1214L 27.6763 67.6994ZM 29.4104 67.1445L 29.4104 63.1214L 32.1156 63.1214C 31.7688 64.8555 31.0751 66.3121 29.4104 67.1445ZM 32.3931 61.526L 25.3179 61.526L 18.2428 61.526C 18.2428 61.3179 18.1734 61.0405 18.1734 60.8324L 25.2486 60.8324L 32.3931 60.8324C 32.3931 61.1098 32.3931 61.3179 32.3931 61.526ZM 32.5318 58.9595C 32.5318 59.0983 32.5318 59.237 32.5318 59.3064L 25.3179 59.3064L 18.1734 59.3064C 18.1734 59.1676 18.1734 59.0289 18.1734 58.9595C 18.1734 58.6821 18.1734 58.4046 18.1734 58.1965C 19.2139 58.474 22.0578 58.8208 25.3873 58.8208C 28.7861 58.8208 31.6994 58.4046 32.6705 58.1272C 32.5318 58.4046 32.5318 58.6821 32.5318 58.9595ZM 32.7399 56.5318L 32.6012 56.5318C 31.9075 56.2543 30.1734 55.8382 27.9538 55.6301C 27.6763 54.104 27.1214 52.6474 27.052 52.4393C 26.9133 52.0231 27.1214 51.5376 27.4682 51.052C 28.2312 50.0809 28.0925 49.8035 27.6763 48.8324C 28.8555 48.2775 30.0347 47.8613 30.7977 47.1676C 32.1156 45.9191 32.6705 44.2543 32.948 41.9653L 36.5549 41.9653C 36.9711 41.9653 37.1098 40.3006 36.6243 40.3699L 36.2081 40.4393L 32.948 40.8555C 32.8786 40.7861 32.8093 40.7168 32.5318 40.7861C 32.3931 40.7861 32.2543 40.8555 32.1156 40.9942L 29.6879 41.341C 29.5491 41.341 29.5491 41.5491 29.5491 41.6879C 29.5491 41.8266 29.6185 42.0347 29.6879 42.0347L 32.185 42.0347C 31.6994 44.3237 30.5202 46.6821 27.6763 47.0983C 25.8035 47.3757 25.8035 45.5029 27.2601 45.0867C 28.3006 44.8092 28.6474 44.5318 28.7168 43.5607C 28.4393 43.5607 28.3699 43.422 28.2312 43.422C 28.0925 43.3526 28.0925 43.2832 28.2312 43.2832C 28.3699 43.2832 28.578 43.2139 28.7168 43.2139C 28.7168 43.1445 28.7168 43.1445 28.7168 43.1445C 28.7168 43.0058 28.7861 43.0058 28.9249 42.9364C 29.1329 42.7977 29.1329 42.7283 28.9942 42.4509C 28.8555 42.2428 28.7861 42.104 28.7168 41.896C 28.6474 41.2023 28.578 40.3006 28.3006 39.815C 28.8555 39.4682 29.4798 39.1908 29.9653 38.7746L 29.8266 38.4971C 28.7861 39.052 27.7457 39.4682 26.7052 39.8844L 27.5376 39.052C 27.1908 38.7746 26.5665 37.8728 24.2775 38.7052C 23.237 39.1214 22.6127 40.3006 22.4046 41.4104C 21.6416 41.6185 20.8092 41.896 19.9769 42.104L 20.0462 42.4509C 20.948 42.3121 21.7803 42.1734 22.6821 41.9653C 23.3064 41.8266 23.8613 41.6185 24.4855 41.4798C 23.8613 41.896 23.237 42.1734 22.3353 42.4509C 21.7803 43.9075 21.9191 44.6012 20.6012 45.5723C 20.3931 45.711 19.0751 46.4046 18.2428 46.3353C 18.104 46.3353 18.5202 46.9595 19.2832 46.9595C 20.6012 46.9595 20.8092 46.4046 20.7399 47.0983C 20.6705 48.2081 20.8092 48.6243 21.9191 48.6936C 20.0462 51.1214 18.9364 52.2312 16.9942 54.3121L 10.2659 35.9306L 13.4566 35.9306L 14.0116 35.9306L 25.1792 35.9306L 36.4162 35.9306L 36.9711 35.9306L 40.1619 35.9306L 32.7399 56.5318ZM 36.763 50.0116L 39.7457 41.9653L 41.5491 41.9653L 36.763 50.0116ZM 42.4509 40.4393L 40.3006 40.4393L 40.8555 38.9133L 43.3526 38.9133L 42.4509 40.4393ZM 44.2543 37.3873L 41.4104 37.3873L 41.9653 35.8613L 45.1561 35.8613L 44.2543 37.3873ZM 46.0578 34.3353L 37.3179 34.3353C 38.289 31.0058 38.7746 27.3295 38.7746 23.5838C 38.7746 23.5145 38.7746 23.4451 38.7746 23.3757L 48.6936 27.2601C 48.2775 29.7572 47.3757 32.1156 46.0578 34.3353Z"/>
</defs>
</svg>
