<svg width="88" height="256" viewBox="0 0 88 256" version="1.1" xmlns="http://www.w3.org/2000/svg" xmlns:xlink="http://www.w3.org/1999/xlink">
<title>Combined Shape</title>
<desc>Created using Figma</desc>
<g id="Canvas" transform="translate(1135 2164)">
<g id="Combined Shape">
<use xlink:href="#path0_fill" transform="translate(-1135 -2164)" fill="#FFEC61"/>
</g>
</g>
<defs>
<path id="path0_fill" fill-rule="evenodd" d="M 8 0C 8 6 10 11 12 16C 14 21 16 26 16 32C 16 38 14 43 12 48C 10 53 8 58 8 64C 8 70 10 75 12 80C 14 85 16 90 16 96C 16 102 14 107 12 112C 10 117 8 122 8 128C 8 134 10 139 12 144C 14 149 16 154 16 160C 16 166 14 171 12 176C 10 181 8 186 8 192C 8 198 10 203 12 208C 14 213 16 218 16 224C 16 230 14 235 12 240C 10 245 8 250 8 256L 0 256C 0 250 2 245 4 240C 6 235 8 230 8 224C 8 218 6 213 4 208C 2 203 0 198 0 192C 0 186 2 181 4 176C 6 171 8 166 8 160C 8 154 6 149 4 144C 2 139 0 134 0 128C 0 122 2 117 4 112C 6 107 8 102 8 96C 8 90 6 85 4 80C 2 75 0 70 0 64C 0 58 2 53 4 48C 6 43 8 38 8 32C 8 26 6 21 4 16C 2 11 0 6 0 0L 8 0ZM 24 0C 24 6 26 11 28 16C 30 21 32 26 32 32C 32 38 30 43 28 48C 26 53 24 58 24 64C 24 70 26 75 28 80C 30 85 32 90 32 96C 32 102 30 107 28 112C 26 117 24 122 24 128C 24 134 26 139 28 144C 30 149 32 154 32 160C 32 166 30 171 28 176C 26 181 24 186 24 192C 24 198 26 203 28 208C 30 213 32 218 32 224C 32 230 30 235 28 240C 26 245 24 250 24 256L 16 256C 16 250 18 245 20 240C 22 235 24 230 24 224C 24 218 22 213 20 208C 18 203 16 198 16 192C 16 186 18 181 20 176C 22 171 24 166 24 160C 24 154 22 149 20 144C 18 139 16 134 16 128C 16 122 18 117 20 112C 22 107 24 102 24 96C 24 90 22 85 20 80C 18 75 16 70 16 64C 16 58 18 53 20 48C 22 43 24 38 24 32C 24 26 22 21 20 16C 18 11 16 6 16 0L 24 0ZM 40 0C 40 6 42 11 44 16C 46 21 48 26 48 32C 48 38 46 43 44 48C 42 53 40 58 40 64C 40 70 42 75 44 80C 46 85 48 90 48 96C 48 102 46 107 44 112C 42 117 40 122 40 128C 40 134 42 139 44 144C 46 149 48 154 48 160C 48 166 46 171 44 176C 42 181 40 186 40 192C 40 198 42 203 44 208C 46 213 48 218 48 224C 48 230 46 235 44 240C 42 245 40 250 40 256L 32 256C 32 250 34 245 36 240C 38 235 40 230 40 224C 40 218 38 213 36 208C 34 203 32 198 32 192C 32 186 34 181 36 176C 38 171 40 166 40 160C 40 154 38 149 36 144C 34 139 32 134 32 128C 32 122 34 117 36 112C 38 107 40 102 40 96C 40 90 38 85 36 80C 34 75 32 70 32 64C 32 58 34 53 36 48C 38 43 40 38 40 32C 40 26 38 21 36 16C 34 11 32 6 32 0L 40 0ZM 56 0C 56 6 58 11 60 16C 62 21 64 26 64 32C 64 38 62 43 60 48C 58 53 56 58 56 64C 56 70 58 75 60 80C 62 85 64 90 64 96C 64 102 62 107 60 112C 58 117 56 122 56 128C 56 134 58 139 60 144C 62 149 64 154 64 160C 64 166 62 171 60 176C 58 181 56 186 56 192C 56 198 58 203 60 208C 62 213 64 218 64 224C 64 230 62 235 60 240C 58 245 56 250 56 256L 48 256C 48 250 50 245 52 240C 54 235 56 230 56 224C 56 218 54 213 52 208C 50 203 48 198 48 192C 48 186 50 181 52 176C 54 171 56 166 56 160C 56 154 54 149 52 144C 50 139 48 134 48 128C 48 122 50 117 52 112C 54 107 56 102 56 96C 56 90 54 85 52 80C 50 75 48 70 48 64C 48 58 50 53 52 48C 54 43 56 38 56 32C 56 26 54 21 52 16C 50 11 48 6 48 0L 56 0ZM 72 0C 72 6 74 11 76 16C 78 21 80 26 80 32C 80 38 78 43 76 48C 74 53 72 58 72 64C 72 70 74 75 76 80C 78 85 80 90 80 96C 80 102 78 107 76 112C 74 117 72 122 72 128C 72 134 74 139 76 144C 78 149 80 154 80 160C 80 166 78 171 76 176C 74 181 72 186 72 192C 72 198 74 203 76 208C 78 213 80 218 80 224C 80 230 78 235 76 240C 74 245 72 250 72 256L 64 256C 64 250 66 245 68 240C 70 235 72 230 72 224C 72 218 70 213 68 208C 66 203 64 198 64 192C 64 186 66 181 68 176C 70 171 72 166 72 160C 72 154 70 149 68 144C 66 139 64 134 64 128C 64 122 66 117 68 112C 70 107 72 102 72 96C 72 90 70 85 68 80C 66 75 64 70 64 64C 64 58 66 53 68 48C 70 43 72 38 72 32C 72 26 70 21 68 16C 66 11 64 6 64 0L 72 0ZM 88 0C 88 6 90 11 92 16C 94 21 96 26 96 32C 96 38 94 43 92 48C 90 53 88 58 88 64C 88 70 90 75 92 80C 94 85 96 90 96 96C 96 102 94 107 92 112C 90 117 88 122 88 128C 88 134 90 139 92 144C 94 149 96 154 96 160C 96 166 94 171 92 176C 90 181 88 186 88 192C 88 198 90 203 92 208C 94 213 96 218 96 224C 96 230 94 235 92 240C 90 245 88 250 88 256L 80 256C 80 250 82 245 84 240C 86 235 88 230 88 224C 88 218 86 213 84 208C 82 203 80 198 80 192C 80 186 82 181 84 176C 86 171 88 166 88 160C 88 154 86 149 84 144C 82 139 80 134 80 128C 80 122 82 117 84 112C 86 107 88 102 88 96C 88 90 86 85 84 80C 82 75 80 70 80 64C 80 58 82 53 84 48C 86 43 88 38 88 32C 88 26 86 21 84 16C 82 11 80 6 80 0L 88 0ZM 104 0C 104 6 106 11 108 16C 110 21 112 26 112 32C 112 38 110 43 108 48C 106 53 104 58 104 64C 104 70 106 75 108 80C 110 85 112 90 112 96C 112 102 110 107 108 112C 106 117 104 122 104 128C 104 134 106 139 108 144C 110 149 112 154 112 160C 112 166 110 171 108 176C 106 181 104 186 104 192C 104 198 106 203 108 208C 110 213 112 218 112 224C 112 230 110 235 108 240C 106 245 104 250 104 256L 96 256C 96 250 98 245 100 240C 102 235 104 230 104 224C 104 218 102 213 100 208C 98 203 96 198 96 192C 96 186 98 181 100 176C 102 171 104 166 104 160C 104 154 102 149 100 144C 98 139 96 134 96 128C 96 122 98 117 100 112C 102 107 104 102 104 96C 104 90 102 85 100 80C 98 75 96 70 96 64C 96 58 98 53 100 48C 102 43 104 38 104 32C 104 26 102 21 100 16C 98 11 96 6 96 0L 104 0ZM 124 16C 122 11 120 6 120 0L 112 0C 112 6 114 11 116 16C 118 21 120 26 120 32C 120 38 118 43 116 48C 114 53 112 58 112 64C 112 70 114 75 116 80C 118 85 120 90 120 96C 120 102 118 107 116 112C 114 117 112 122 112 128C 112 134 114 139 116 144C 118 149 120 154 120 160C 120 166 118 171 116 176C 114 181 112 186 112 192C 112 198 114 203 116 208C 118 213 120 218 120 224C 120 230 118 235 116 240C 114 245 112 250 112 256L 120 256C 120 250 122 245 124 240C 126 235 128 230 128 224C 128 218 126 213 124 208C 122 203 120 198 120 192C 120 186 122 181 124 176C 126 171 128 166 128 160C 128 154 126 149 124 144C 122 139 120 134 120 128C 120 122 122 117 124 112C 126 107 128 102 128 96C 128 90 126 85 124 80C 122 75 120 70 120 64C 120 58 122 53 124 48C 126 43 128 38 128 32C 128 26 126 21 124 16Z"/>
</defs>
</svg>
