<svg width="30" height="30" viewBox="0 0 30 30" version="1.1" xmlns="http://www.w3.org/2000/svg" xmlns:xlink="http://www.w3.org/1999/xlink">
<title>Rectangle 5</title>
<desc>Created using Figma</desc>
<g id="Canvas" transform="translate(371 -2259)">
<g id="Rectangle 5">
<use xlink:href="#path0_fill" transform="translate(-371 2259)" fill="#FFFFFF"/>
</g>
</g>
<defs>
<path id="path0_fill" d="M 0 30L 30 15L 0 0L 0 30Z"/>
</defs>
</svg>
