<svg width="12" height="24" viewBox="0 0 12 24" version="1.1" xmlns="http://www.w3.org/2000/svg" xmlns:xlink="http://www.w3.org/1999/xlink">
<title>Vector</title>
<desc>Created using Figma</desc>
<g id="Canvas" transform="translate(-1733 2140)">
<g id="Vector">
<use xlink:href="#path0_fill" transform="translate(1733 -2140)" fill="#B0C1C0"/>
</g>
</g>
<defs>
<path id="path0_fill" d="M 3 8L 0 8L 0 12L 3 12L 3 24L 8 24L 8 12L 11.642 12L 12 8L 8 8L 8 6.333C 8 5.378 8.192 5 9.115 5L 12 5L 12 0L 8.192 0C 4.596 0 3 1.583 3 4.615L 3 8Z"/>
</defs>
</svg>
