<svg width="96" height="55" viewBox="0 0 96 55" version="1.1" xmlns="http://www.w3.org/2000/svg" xmlns:xlink="http://www.w3.org/1999/xlink">
<title>Rectangle 5</title>
<desc>Created using Figma</desc>
<g id="Canvas" transform="translate(1841 1221)">
<g id="Rectangle 5">
<use xlink:href="#path0_fill" transform="translate(-1841 -1221)" fill="#FFEC61"/>
</g>
</g>
<defs>
<path id="path0_fill" fill-rule="evenodd" d="M 0 30L 48 0L 96 30L 96 55L 48 25L 0 55L 0 30Z"/>
</defs>
</svg>
