<svg width="120" height="120" viewBox="0 0 120 120" version="1.1" xmlns="http://www.w3.org/2000/svg" xmlns:xlink="http://www.w3.org/1999/xlink">
<title>Vector 4</title>
<desc>Created using Figma</desc>
<g id="Canvas" transform="translate(-2189 -139)">
<g id="Vector 4">
<use xlink:href="#path0_fill" transform="translate(2189 139)" fill="#85F937"/>
</g>
</g>
<defs>
<path id="path0_fill" d="M 120 60L 0 0L 0 48L 72 60L 0 72L 0 120L 120 60Z"/>
</defs>
</svg>
